…
#get all technologies
labels <- technology %>% 
  distinct(variable, label)
labels

## # A tibble: 195 × 2
##    variable label                                       
##    <chr>    <chr>                                       
##  1 BCG      % children who received a BCG immunization  
##  2 DPT      % children who received a DPT immunization  
##  3 HepB3    % children who received a hepb3 immunization
##  4 Hib3     % children who received a Hib3 immunization 
##  5 IPV1     % children who received a IPV1 immunization 
##  6 MCV1     % children who received a MCV1 immunization 
##  7 MCV2     % children who received a MCV2 immunization 
##  8 PCV3     % children who received a PCV3 immunization 
##  9 Pol3     % children who received a Pol3 immunization 
## 10 RCV1     % children who received a RCV1 immunization 
## # … with 185 more rows
…
#make smaller dataframe on energy
energy <- technology %>% 
  filter(category == "Energy")
energy

## # A tibble: 66,748 × 8
##    variable  label                       iso3c  year group categ…¹ value country
##    <chr>     <chr>                       <chr> <dbl> <chr> <chr>   <dbl> <chr>  
##  1 elec_coal Electricity from coal (TWH) ABW    2000 Prod… Energy      0 Aruba  
##  2 elec_coal Electricity from coal (TWH) ABW    2001 Prod… Energy      0 Aruba  
##  3 elec_coal Electricity from coal (TWH) ABW    2002 Prod… Energy      0 Aruba  
##  4 elec_coal Electricity from coal (TWH) ABW    2003 Prod… Energy      0 Aruba  
##  5 elec_coal Electricity from coal (TWH) ABW    2004 Prod… Energy      0 Aruba  
##  6 elec_coal Electricity from coal (TWH) ABW    2005 Prod… Energy      0 Aruba  
##  7 elec_coal Electricity from coal (TWH) ABW    2006 Prod… Energy      0 Aruba  
##  8 elec_coal Electricity from coal (TWH) ABW    2007 Prod… Energy      0 Aruba  
##  9 elec_coal Electricity from coal (TWH) ABW    2008 Prod… Energy      0 Aruba  
## 10 elec_coal Electricity from coal (TWH) ABW    2009 Prod… Energy      0 Aruba  
## # … with 66,738 more rows, and abbreviated variable name ¹​category
…
# get a list of countries and their characteristics
# we just want to get the region a country is in and its income level
countries <-  wb_cachelist$countries %>% 
  select(iso3c,region,income_level)
countries

## # A tibble: 304 × 3
##    iso3c region                     income_level       
##    <chr> <chr>                      <chr>              
##  1 ABW   Latin America & Caribbean  High income        
##  2 AFG   South Asia                 Low income         
##  3 AFR   Aggregates                 Aggregates         
##  4 AGO   Sub-Saharan Africa         Lower middle income
##  5 ALB   Europe & Central Asia      Upper middle income
##  6 AND   Europe & Central Asia      High income        
##  7 ANR   Aggregates                 Aggregates         
##  8 ARB   Aggregates                 Aggregates         
##  9 ARE   Middle East & North Africa High income        
## 10 ARG   Latin America & Caribbean  Upper middle income
## # … with 294 more rows
…
Second, you can produce an animation to explore the relationship between CO2 per capita emissions and the deployment of renewables. As the % of energy generated by renewables goes up, do CO2 per capita emissions seem to go down?

## # A tibble: 4,538 × 9
## # Groups:   country [199]
##    country      year percent_contri…¹ indic…² indic…³ iso2c iso3c  value year_…⁴
##    <chr>       <dbl>            <dbl> <chr>   <chr>   <chr> <chr>  <dbl>   <int>
##  1 Afghanistan  2000            0.668 EN.ATM… CO2 em… AF    AFG   0.0366    2000
##  2 Afghanistan  2001            0.841 EN.ATM… CO2 em… AF    AFG   0.0338    2001
##  3 Afghanistan  2002            0.808 EN.ATM… CO2 em… AF    AFG   0.0456    2002
##  4 Afghanistan  2003            0.671 EN.ATM… CO2 em… AF    AFG   0.0515    2003
##  5 Afghanistan  2004            0.632 EN.ATM… CO2 em… AF    AFG   0.0417    2004
##  6 Afghanistan  2005            0.632 EN.ATM… CO2 em… AF    AFG   0.0604    2005
##  7 Afghanistan  2006            0.761 EN.ATM… CO2 em… AF    AFG   0.0666    2006
##  8 Afghanistan  2007            0.791 EN.ATM… CO2 em… AF    AFG   0.0653    2007
##  9 Afghanistan  2008            0.745 EN.ATM… CO2 em… AF    AFG   0.128     2008
## 10 Afghanistan  2009            0.827 EN.ATM… CO2 em… AF    AFG   0.172     2009
## # … with 4,528 more rows, and abbreviated variable names ¹​percent_contribution,
## #   ²​indicator_id, ³​indicator, ⁴​year_new
…
