…
Select the year and the twelve month variables from the weather dataset and convert the dataframe from wide to ‘long’ format.

#Converting into long format, first column (year) stays
weather_selected <- weather %>% 
  select(1:13)

tidyweather <- weather_selected %>% 
  pivot_longer(cols = 2:13,
               names_to = "month",
               values_to = "delta") 

tidyweather

## # A tibble: 1,716 × 3
##     Year month delta
##    <dbl> <chr> <dbl>
##  1  1880 Jan   -0.39
##  2  1880 Feb   -0.53
##  3  1880 Mar   -0.23
##  4  1880 Apr   -0.3 
##  5  1880 May   -0.05
##  6  1880 Jun   -0.18
##  7  1880 Jul   -0.21
##  8  1880 Aug   -0.25
##  9  1880 Sep   -0.24
## 10  1880 Oct   -0.3 
## # … with 1,706 more rows
…
